﻿SN;PSTYPE;Location
1190;'A4601';p5
175;'A4601';p5
390;'A4601';p5
1100;'A4601';p5
64;'A4602';p5
52;'MAO';p5
736;'A4601';p5
216;'MAO';p5
898;'A4601';p5
326;'A4601';p5
599;'A4601';p5
560;'A4601';p5
783;'A4601';p5
120;'A4601';p5
408;'A4601';p5
163;'A4601';p5
91;'A4601';p5
288;'A4601';p5
26;'A4602';p5
28;'A4602';p5
222;'A4601';p5
1229;'A4601';p5
161;'A4601';p5
1008;'A4601';p5
1094;'A4601';p5
564;'A4601';p5
279;'A4601';p5
1017;'A4601';p5
977;'A4601';p5
542;'A4601';p5
748;'A4601';p5
193;'MAO';p5
629;'A4601';p5
445;'A4601';p5
284;'A4601';p5
329;'A4601';p5
278;'A4601';p5
418;'A4601';p5
900;'A4601';p5
1092;'A4601';p5
637;'A4601';p5
780;'A4601';p5
556;'A4601';p5
1005;'A4601';p5
297;'A4601';p5
124;'A4601';p5
289;'A4601';p5
471;'A4601';p5
1194;'A4601';p5
221;'A4601';p5
1189;'A4601';p5
186;'MAO';p5
262;'MAO';p5
256;'A4601';p5
1103;'A4601';p5
295;'A4601';p5
496;'A4601';p5
960;'A4601';p5
453;'A4601';p5
345;'A4601';p5
836;'A4601';p5
812;'A4601';p5
528;'A4601';p5
1105;'A4601';p5
139;'A4601';p5
216;'A4601';p5
218;'A4601';p5
115;'A4601';p5
212;'A4601';p5
144;'A4601';p5
1003;'A4601';p5
72;'MAO';p5
108;'A4602';p5
882;'A4601';p5
614;'A4601';p5
195;'A4601';p5
167;'A4602';p5
978;'A4601';p5
102;'A4602';p5
501;'A4601';p5
381;'A4601';p5
1028;'A4601';p5
211;'A4601';p5
178;'A4601';p5
192;'A4601';p5
183;'A4601';p5
162;'A4601';p5
85;'A4601';p5
217;'A4601';p5
893;'A4601';p5
921;'A4601';p5
100;'A4601';p5
335;'A4601';p5
1062;'A4601';p5
192;'MAO';p5
147;'MAO';p5
482;'A4601';p5
398;'A4601';p5
655;'A4601';p5
868;'A4601';p5
395;'A4601';p5
650;'A4601';p5
886;'A4601';p5
171;'MAO';p5
761;'A4601';p5
37;'A4602';p5
131;'MAO';p5
157;'A4601';p5
947;'A4601';p5
32;'A4602';p5
49;'MAO';p5
1207;'A4601';p5
704;'A4601';p5
30;'A4602';p5
50;'MAO';p5
1180;'A4601';p5
1191;'A4601';p5
237;'A4601';p5
43;'A4601';p5
1168;'A4601';p5
540;'A4601';p5
1025;'A4601';p5
871;'A4601';p5
505;'A4602';p5
505;'A4601';p5
247;'A4601';p5
129;'A4601';p5
838;'A4601';p5
189;'MAO';p5
70;'A4602';p5
166;'A4601';p5
939;'A4601';p5
37;'A4601';p5
733;'A4601';p5
691;'A4601';p5
957;'A4601';p5
581;'A4601';p5
1126;'A4601';p5
176;'A4602';p5
595;'A4601';p5
322;'A4601';p5
995;'A4601';p5
867;'A4601';p5
1069;'A4601';p5
229;'A4601';p5
991;'A4601';p5
179;'A4601';p5
50;'A4602';p5
173;'A4602';p5
603;'A4601';p5
1019;'A4601';p5
142;'A4601';p5
880;'A4601';p5
944;'A4601';p5
925;'A4601';p5
56;'MAO';p5
153;'A4602';p5
27;'A4602';p5