LHCSN, SN
74220048,1128
74220053,1138
74220011, 1208
74220080, 1206
74220070, 1164
74220051,1135
74220044,1118
74220014, 1214
74220052, 1136
74220031, 850
74220079, 1205
74220061, 1151
74220078, 1201
74220046, 1122
74220075, 1158
74220035, 881
74220045, 1119
74220055, 1142
74220066, 1160
74220057, 1144
74220069, 1172
74220065, 1159
74220059, 1148
74220063, 1153
74220007, 1146
74220064, 1154
74220072, 1167
74220068, 1169
			